<svg
        xmlns="http://www.w3.org/2000/svg"
        xmlns:xlink="http://www.w3.org/1999/xlink"
        width="123px" height="10px">
    <path fill-rule="evenodd"  stroke="rgb(0, 0, 5)" stroke-width="2px" stroke-linecap="butt" stroke-linejoin="miter" fill="none"
          d="M0.999,1.000 L57.000,1.000 L61.000,5.000 L65.000,1.000 L121.000,1.000 "/>
</svg>